01h 81h Esc
02h 82h 1
03h 83h 2
04h 84h 3
05h 85h 4
06h 86h 5
07h 87h 6
08h 88h 7
09h 89h 8
0Ah 8Ah 9
0Bh 8Bh 0
0Ch 8Ch -
0Dh 8Dh ^
0Eh 8Eh Backspace
0Fh 8Fh Tab
10h 90h Q
11h 91h W
12h 92h E
13h 93h R
14h 94h T
15h 95h Y
16h 96h U
17h 97h I
18h 98h O
19h 99h P
1Ah 9Ah @
1Bh 9Bh [
1Ch 9Ch Enter
1Dh 9Dh Ctrl
1Eh 9Eh A
1Fh 9Fh S
20h A0h D
21h A1h F
22h A2h G
23h A3h H
24h A4h J
25h A5h K
26h A6h L
27h A7h ;
28h A8h :
29h A9h `
2Ah AAh Left
2Bh ABh ]
2Ch ACh Z
2Dh ADh X
2Eh AEh C
2Fh AFh V
30h B0h B
31h B1h N
32h B2h M
33h B3h ,
34h B4h .
35h B5h /
36h B6h Right
37h B7h Grey
38h B8h Alt
39h B9h SpaceBar
3Ah BAh CapsLock
3Bh BBh F1
3Ch BCh F2
3Dh BDh F3
3Eh BEh F4
3Fh BFh F5
40h C0h F6
41h C1h F7
42h C2h F8
43h C3h F9
44h C4h F10
45h C5h NumLock
46h C6h ScrollLock
47h C7h Home
48h C8h UpArrow
49h C9h PgUp
4Ah CAh Grey
4Bh CBh LeftArrow
4Ch CCh Keypad
4Dh CDh RightArrow
4Eh CEh Grey+
4Fh CFh End
50h D0h DownArrow
51h D1h PgDn
52h D2h Ins
53h D3h Del
54h D4h SysReq
00h 80h kbd
56h D6h left
57h D7h F11
58h D8h F12
E0h     prefix code
E1h     prefix code
EEh     ECHO
